Lab 5
…
t <- milk1998 %>% group_by(state) %>% summarise(average = mean(milk_million), med = median(milk_produced), max = max(milk_million), low = min(milk_million)) %>% as_tibble()
t

## # A tibble: 50 x 5
##    state       average         med   max   low
##    <chr>         <dbl>       <dbl> <dbl> <dbl>
##  1 Alabama         386   386000000   386   386
##  2 Alaska           14    14000000    14    14
##  3 Arizona        2680  2680000000  2680  2680
##  4 Arkansas        540   540000000   540   540
##  5 California    27620 27620000000 27620 27620
##  6 Colorado       1689  1689000000  1689  1689
##  7 Connecticut     529   529000000   529   529
##  8 Delaware        159   159000000   159   159
##  9 Florida        2337  2337000000  2337  2337
## 10 Georgia        1437  1437000000  1437  1437
## #  with 40 more rows
…
info <- milk %>%
  group_by(state) %>%
  summarise(mean = mean(milk_million), median=median(milk_million), maximum=max(milk_million), minimum=min(milk_million)) %>%
  as_tibble()
info

## # A tibble: 50 x 5
##    state          mean median maximum minimum
##    <chr>         <dbl>  <dbl>   <dbl>   <dbl>
##  1 Alabama       433.    501      820      89
##  2 Alaska         14.1    14       35       3
##  3 Arizona      2436.   2005     5010     585
##  4 Arkansas      543.    702      848      79
##  5 California  25410.  24079    42339    9457
##  6 Colorado     1796.   1502.    4189     835
##  7 Connecticut   512.    525      661     353
##  8 Delaware      127.    130      159      90
##  9 Florida      2222.   2231     2623    1641
## 10 Georgia      1411.   1402     1840    1160
## #  with 40 more rows
